859363 694039 525
853034 758510 525
527277 806919 509
213748 873028 525
507835 448983 444
676496 530943 509
699843 212388 509
451216 939055 525
758273 495773 509
701129 520284 509
56251 630971 509
150584 556484 470
920701 489616 525
878839 809777 525
36183 589428 470
71761 885743 525
9384 728994 509
100333 793548 509
959021 595129 525
108634 556673 470
264449 325754 407
490311 379043 449
40527 36792 306
77973 277349 443
122433 630182 509
901027 655434 525
584909 509989 470
376906 636765 509
198974 239121 443
649145 481837 509
625771 733424 509
597236 788207 509
189122 690388 509
656804 584927 509
86492 33374 351
561374 168718 470
849087 761366 525
775835 783761 437
60511 311525 443
519869 262629 470
605988 651278 509
873264 262989 525
252826 756826 509
200310 193283 360
372331 536166 470
305850 530482 470
545236 951887 525
239463 237572 350
945613 858474 507
616760 669978 509
381261 773513 509
861415 492131 525
858502 550651 525
61731 303910 443
913874 799640 525
832026 971835 525
299172 984183 525
68649 750540 509
232364 549327 470
243081 881309 525
822847 986613 525
488635 794737 509
538471 673417 509
145041 754006 509
793998 100225 509
800083 768840 468
4049 641914 509
970858 612638 525
983296 583456 525
959928 813544 525
195964 817179 509
227620 957668 525
550515 178841 470
949880 743144 525
462458 100747 449
758811 1850 509
561887 786010 509
859846 124498 525
997140 721688 525
256975 61704 443
637069 407044 509
827107 417205 509
34620 186479 383
496983 771679 509
475698 470459 382
811482 69227 509
204092 979069 525
676866 885387 525
303948 727926 509
338862 476924 449
143891 450702 449
419277 8080 449
476738 175776 449
163173 530312 470
446921 607564 470
950940 316634 525
751224 599261 509
690020 4542 509
355836 529854 470
360322 671837 509
438275 386764 449
262856 338243 407
190845 326877 443
497136 113891 449
191638 982758 525
70052 869152 525
98241 931637 525
428900 158276 449
101709 103858 310
778244 855436 525
489728 370613 449
67108 864837 525
236568 341872 407
6289 790133 509
11433 151051 375
562240 991130 525
654786 574502 509
627517 110865 509
409093 978181 525
271795 893719 525
569922 34363 470
392067 697866 509
402218 997384 525
870802 44039 525
505397 979812 525
94107 777217 509
547422 266408 470
62287 64673 330
384583 938506 525
283100 720747 509
229713 781208 509
401471 373943 436
864169 128231 525
936703 759691 525
236408 436441 449
554556 222727 470
875728 790060 525
792952 534614 509
694061 886834 525
292778 441392 449
232716 477712 449
403686 777726 509
642811 472845 509
619345 896695 525
587097 521767 452
194087 758940 509
577767 657743 509
478654 524333 470
761941 130809 509
73092 38827 340
365360 178960 443
158964 610701 470
403969 349085 436
163572 497694 449
61073 376431 443
835654 463310 509
720078 671621 504
974706 908388 507
366321 347593 410
481422 155666 449
547653 842188 525
513732 817456 509
513934 33054 470
977485 523586 525
946311 517643 525
693180 266925 509
955174 342969 525
426901 774585 509
724365 442237 509
211624 726980 509
500276 739260 509
880182 583262 525
274331 721909 509
641796 100259 509
301768 885943 525
651127 844242 525
17497 502290 449
439060 165045 449
299115 86504 443
526438 853365 525
410624 113213 449
123946 975309 525
969947 232935 525
138996 301334 443
498240 305314 449
750164 323005 509
661247 421137 509
503943 523642 470
167917 237430 443
870252 640031 525
822577 821569 357
758058 935239 525
571833 785259 509
588485 321427 470
274991 151211 443
790456 226152 509
21317 930430 525
923865 274743 525
432130 29317 449
38590 308505 443
81186 131306 354
318295 498 443
152710 561636 470
820004 162437 509
551243 482513 470
526147 819232 509
459773 528532 470
818731 390403 509
363244 396966 436
43091 127690 354
767680 87145 509
186654 932263 525
634493 409964 509
533416 133699 470
801606 996988 525
527570 888450 525
194879 508245 449
470378 747546 509
73325 354231 443
893544 210469 525
49887 349827 443
261422 732131 509
706226 423696 509
279039 897070 525
630761 36900 509
914630 199944 525
933724 625046 525
280080 762902 509
258350 91678 443
96967 245130 443
305839 153680 443
308954 206869 443
382074 444442 449
258462 819906 509
699019 100631 509
89623 401571 443
599185 275596 470
355947 72546 443
143371 884873 525
513576 394622 470
39091 466690 449
78999 487089 449
18448 118735 354
290207 169012 443
566568 378409 470
502053 767520 509
756502 154714 509
249089 543913 470
711735 605883 509
534166 636396 509
59860 845433 525
41087 541295 470
278827 704466 509
557330 695771 509
142873 405140 443
775972 581726 509
141794 809593 509
689061 79982 509
794317 630145 504
681947 652791 442
874467 689752 525
338270 604496 470
506585 887504 525
794971 823479 468
428170 447913 400
524620 168427 470
932906 530790 525
520790 174144 470
197297 654679 509
791805 29316 509
671637 347705 509
629488 261936 509
703888 568 509
338428 457574 449
88279 732263 509
2236 151064 375
382147 144029 443
166574 805230 509
871012 190776 525
860256 566738 525
618768 416543 470
72484 178311 383
899096 274931 525
925236 59039 525
308099 764714 509
560760 83350 470
107478 130432 349
813814 194414 509
891433 778667 525
671504 681967 385
229040 349374 443
528414 865315 525
116520 78988 354
615839 281420 470
899625 658817 525
450774 408213 449
837127 2961 509
802066 210967 509
636798 362181 509
91316 160513 383
900939 831655 525
801033 206942 509
639100 396697 509
507985 295127 449
590455 670851 509
281854 43792 443
239783 953817 525
967058 203847 525
952464 531953 525
595390 327396 470
675738 948910 525
447215 984026 525
124199 176816 383
520175 292419 470
659771 417320 509
826744 364498 509
348051 224614 443
176049 576170 470
861660 283025 525
117034 757622 509
547861 645221 509
63236 185453 383
144159 809882 509
820213 122747 509
161257 795861 509
983416 322403 525
330135 808620 509
180605 987605 525
695571 450217 509
253210 130814 443
319301 151199 443
171243 947493 525
145394 860291 525
463161 254226 449
406042 442524 449
413113 390216 449
435595 306261 449
382679 137536 443
482201 7995 449
146275 211994 383
892986 853296 445
50950 393452 443
323812 690139 509
20310 2662 279
114712 881236 525
157947 364576 443
885487 684977 525
126845 67264 354
113378 746123 509
156566 545483 470
343378 45675 443
415251 442787 418
242354 155683 443
716519 368280 509
889119 624768 525
138026 634121 509
576022 473208 470
558267 641735 509
272035 920506 525
421153 504359 444
256821 807294 509
949475 149611 525
552189 19557 470
186124 52991 383
827556 163629 509
499863 480007 426
193246 990433 525
71445 72105 250
251095 3116 443
697851 273195 509
976705 230623 525
784988 198903 509
32134 911691 525
368398 51194 443
501172 156706 449
499064 161415 449
758760 343697 509
712622 945933 525
353571 441856 449
78155 732951 509
655832 479905 509
588987 439232 470
34749 508653 449
832030 656533 504
119431 233139 443
737968 25934 509
964854 994908 458
861221 52920 525
760916 591632 509
114168 670335 509
149619 972853 525
159331 149670 383
163513 470988 449
621409 510672 470
4468 212682 383
690420 271787 509
976157 212967 525
278421 635707 509
110405 104838 354
877684 711268 525
316299 4155 443
752206 189530 509
487062 274966 449
426214 935908 525
347708 415260 449
10132 415235 449
447137 645513 509
297387 291931 358
794085 769322 437
603602 412401 470
901402 230805 525
393942 73693 443
644451 457046 509
23504 399296 443
848921 6267 525
855686 91873 525
303859 815066 509
691344 960088 525
94802 132421 354
584285 485360 470
716330 515040 509
615499 11901 470
999522 658295 525
922565 581815 525
196444 914643 525
483411 906907 525
773982 237788 509
376763 38395 443
401865 100686 443
537806 979142 525
138902 365639 443
257515 290855 407
614186 623170 447
679563 219972 509
551961 586887 434
686373 865133 525
623576 538141 452
891430 572671 525
75923 339216 443
774450 156910 509
842990 661476 525
418971 424208 418
288935 448938 449
359045 256794 441
915995 734433 525
637241 291304 509
549326 396309 470
644699 69558 509
466825 978109 525
206588 969121 525
374936 236572 441
468376 730676 509
408305 562710 470
638854 535111 509
229025 99669 386
139214 787058 509
16640 137388 354
717993 591940 509
900506 594681 525
663472 709506 504
219265 71547 386
949649 708980 525
498357 557796 470
138159 110390 349
741635 647193 504
794368 767494 468
91330 96591 333
615573 225941 470
305317 361754 441
828162 551891 509
422047 316501 449
502294 336547 449
586352 844718 525
862405 712746 525
46927 49684 314
338028 949951 525
785611 432431 509
373470 138846 443
260120 327105 407
976199 710090 525
841389 628386 525
764188 13317 509
429263 130127 449
972836 933215 507
150105 216647 386
154541 832625 509
659013 437436 509
518281 64981 470
515158 812008 509
123698 889087 525
411337 330569 449
151388 802189 509
675935 944346 525
579797 518453 452
712880 716622 380
133578 521000 470
112392 120826 349
524479 586786 452
256930 676425 509
908545 277813 525
145766 415985 449
705280 951895 525
504332 297250 449
751411 278996 509
321757 125953 443
20304 685908 509
425862 186925 449
219145 161397 386
396521 399018 374
691667 153917 509
917874 223000 525
938327 30030 525
691395 211463 509
968708 327668 525
854045 970377 507
562968 177704 470
461851 405410 449
277479 810831 509
513164 981596 525
570360 456808 470
174005 83759 383
517953 666726 509
710896 405829 509
884579 329001 525
35165 364284 443
692887 409229 509
263005 842927 525
588956 459391 470
820625 64084 509
671442 889599 525
133876 79744 354
806184 420463 509
832153 117724 509
316978 517921 470
645079 199451 509
377361 141159 443
226688 834148 509
514228 22358 470
656995 850230 525
215093 346040 443
430941 293574 449
579997 243441 470
485113 505303 426
693974 989983 525
406272 446497 449
608835 488290 470
957518 610289 525
222265 778291 509
687068 538462 509
54576 334548 443
664822 322545 509
373918 420744 449
64541 109770 354
711177 608653 509
673214 870841 525
450032 848505 525
126249 448103 449
678266 335966 509
26454 984389 525
162457 300139 443
104682 958575 525
991434 744093 525
373752 341550 441
948899 802107 525
775435 171835 509
311498 685968 509
689705 538044 509
123374 498416 449
119798 28671 354
170662 599576 470
995760 435090 525
703869 800659 504
212705 620551 470
30985 232568 443
600064 241812 470
676919 752198 504
821467 135558 509
326235 949163 525
198424 255451 443
340569 651334 509
361366 975975 525
902074 703782 525
246559 248612 350
365732 282476 441
556015 664087 509
769926 767466 468
142475 421017 449
385803 782479 509
575469 255274 470
829047 567061 509
63416 498885 449
489553 175814 449
65457 497598 449
979576 605027 525
801984 432231 509
555082 793062 509
427316 875424 525
6288 758543 509
231435 147122 443
23329 428353 449
48328 838180 525
399281 93560 443
241076 810746 509
28747 87683 351
682483 122515 509
706785 890646 525
326058 477070 449
972507 477262 525
876729 746240 525
599823 669278 509
181776 517697 470
365624 749216 509
917639 748509 525
460105 303546 449
37801 560508 470
504885 228196 449
430882 395271 449
163475 629995 509
814651 106346 509
644496 632885 416
295396 849932 525
502669 817638 509
278251 919338 525
919024 280487 525
668969 902762 525
376911 731337 509
283242 66691 443
875108 274406 525
485155 272471 449
206622 612908 470
688508 923772 525
120564 988449 525
527994 102396 470
728927 375731 509
516438 135656 470
539655 130530 470
340879 384308 441
967571 164676 525
471330 372221 449
369061 942040 525
129821 101348 354
869012 788313 525
438864 636734 509
159108 367357 443
477826 209085 449
150761 237493 443
770520 779754 437
911112 185671 525
154460 711019 509
922480 332733 525
198287 231972 443
613045 775168 509
49914 922435 525
298497 687273 509
522520 463363 470
244488 30347 443
635478 667671 442
405744 653844 509
962709 6826 525
228082 710899 509
713719 936025 525
53880 84828 351
900424 64246 525
887650 677451 525
864175 395899 525
809494 801461 406
613155 11543 470
472678 446489 444
307015 224613 443
948186 304891 525
723903 441957 509
171227 461153 449
252220 692798 509
946762 733452 525
999344 311352 525
509340 923495 525
384135 723757 509
749631 714726 424
583293 83559 470
130587 16397 354
659510 435286 509
403471 283453 441
264846 306886 407
194309 349288 443
104770 361914 443
71387 291613 443
62934 974728 525
28547 639248 509
704502 391845 509
821947 917253 525
511415 135798 449
214571 400151 443
546414 639276 509
8831 359874 443
29899 166399 383
376431 665293 509
400145 483305 449
249970 600260 470
595978 722184 509
41619 943165 525
871601 131015 525
131724 347490 443
836593 355311 509
731461 120885 509
365850 495424 449
19834 574739 470
589007 379397 470
114468 34561 354
693438 212136 509
192515 968092 525
617327 558416 447
564723 557973 359
537484 3681 470
151093 94825 375
567653 406526 470
582230 254984 470
568112 112457 470
554506 718891 509
622673 765283 509
672703 534873 509
210905 497317 449
33471 86093 351
872326 328252 525
770638 292968 509
179243 380407 443
328188 529276 470
144651 441063 449
703246 35285 509
767100 308772 509
328275 184149 443
595018 975066 525
192171 623277 470
252133 190721 443
187615 906411 525
35245 768424 509
498536 987747 525
375875 993081 525
817699 906290 525
727341 961161 525
792841 585148 509
28641 450322 449
179030 813441 509
469018 506089 426
898202 585549 525
770136 788225 437
743085 437410 509
29786 819271 509
325352 590605 470
394942 509501 449
23985 419299 449
553520 780642 509
750641 667143 504
389670 821126 509
451512 796877 509
569129 220973 470
759218 195543 509
600198 429429 470
72548 836587 509
34750 415884 449
543512 883701 525
233236 242270 381
399625 896109 525
889431 817514 525
188347 963327 525
159401 401791 443
604151 709203 509
180903 287843 443
55120 318422 443
960666 200560 525
592356 117351 470
188866 56958 383
990964 551192 525
328612 707637 509
396528 36606 443
596488 365027 470
108021 592614 470
664378 891105 525
580846 214992 470
841203 701897 525
657983 734831 504
619811 179321 470
190674 637641 509
590153 96275 470
900701 855406 445
428182 542860 470
156914 953088 525
213734 435183 449
70869 304067 443
518883 864675 525
133791 70293 354
825454 98552 509
308890 826587 509
395404 12732 443
385574 776843 509
572423 127267 470
713732 693810 504
333882 371430 441
105515 977600 525
423249 50076 449
69257 694642 509
200517 677987 509
770325 889164 525
997986 453557 525
178553 835381 509
847769 535896 525
782885 468401 509
406453 548565 470
2432 812385 509
76323 291635 443
585111 12929 470
832465 965744 525
168556 363942 443
614688 800745 509
494506 132707 449
747516 155567 509
622019 371341 470
802391 638663 504
609586 609138 341
401233 159057 443
123718 618209 470
200549 194467 360
902608 604649 525
510648 440741 444
907279 775042 525
409407 559345 470
213969 356423 443
356770 261325 441
110667 470160 449
877403 311360 525
519753 819397 509
390274 150413 443
984661 190125 525
681885 125238 509
135005 274999 443
980701 61245 525
356304 725077 509
264185 957287 525
34302 174551 383
190458 636777 509
293935 78787 443
834995 659199 504
926153 249530 525
458754 999408 525
1119 914850 525
728323 489334 509
113467 204483 383
753494 715631 424
751700 496514 509
543169 422952 470
315138 741508 509
24954 92826 351
907919 856190 445
574398 750508 509
629174 264693 509
723484 874585 525
568510 467599 470
291226 892864 525
325490 363777 441
260531 129177 443
157510 896859 525
784799 614677 509
706864 200864 509
201321 337488 443
801989 476836 509
833341 99688 509
899799 800860 525
894943 56982 525
41037 509771 449
568308 271594 470
728310 929250 525
559864 279351 470
177106 837774 509
496815 309816 449
756008 592413 509
665743 715686 504
647565 715223 504
707467 696637 504
438972 157590 449
776182 219823 509
216110 102755 383
729863 945586 525
658623 646250 429
819951 24254 509
737394 697447 504
811427 582786 509
534719 791197 509
46579 648292 509
691644 329619 509
440719 194155 449
693493 284817 509
946695 260042 525
706473 159702 509
951652 574594 525
906398 323754 525
336547 723994 509
492696 946633 525
544890 94869 470
391335 138544 443
437769 235310 449
665599 665216 279
375951 305916 441
302029 653713 509
535865 281854 470
168426 333942 443
930178 176796 525
307650 306744 309
782762 259663 509
48077 885246 525
6924 605568 470
499155 109833 449
316254 17864 443
789850 273657 509
690663 712116 504
254347 263749 407
488070 93934 449
908013 923000 476
27650 784838 509
644731 801801 504
275373 97555 443
741855 816032 468
271112 598274 470
823232 863809 525
16952 53987 340
295578 929938 525
334986 549668 470
255143 891822 525
841997 84651 525
498894 875976 525
334083 968057 525
790147 66249 509
500380 104956 449
925904 318653 525
799119 269422 509
266850 428875 449
979520 860646 507
837854 52148 525
335056 172670 443
934719 759200 525
842858 934795 476
17172 178228 383
994448 411692 525
305646 551583 470
754714 458636 509
90799 707058 509
832668 408718 509
185714 723560 509
865256 138212 525
824633 262570 509
531726 893966 525
416210 41156 449
46610 959414 525
477886 499670 426
136365 867020 525
474575 410234 444
146147 439355 449
818631 216375 509
883229 437825 525
753898 316965 509
89630 528971 470
571371 486418 470
326397 64872 443
687728 926173 525
58941 760393 509
679475 577299 509
332456 533404 470
591917 416936 470
454912 651897 509
324795 334261 353
615096 287118 470
773515 864717 525
829352 737297 468
736286 532636 509
765687 909632 525
561067 562410 328
163968 732822 509
685069 133819 509
246589 462194 449
758463 223349 509
546507 125049 470
908954 836699 525
884597 911615 476
340362 23490 443
567345 524270 452
909991 540951 525
506660 593841 470
853459 49140 525
717984 818935 468
113282 485243 449
674784 343919 509
910561 468808 525
677770 747563 504
379027 708722 509
399653 912058 525
780518 491567 509
603137 523896 452
414622 98083 449
597207 248581 470
121506 422269 449
603997 541148 452
